…
dataset2   # looking at data to see what it looks like

## # A tibble: 1,446 x 25
##     Year Decade Month  Date `S&P Comp. Pric~ Dividend Earnings   CPI
##    <dbl>  <dbl> <chr> <dbl>            <dbl>    <dbl>    <dbl> <dbl>
##  1  1900   1900 Janu~ 1900.             6.1     0.22      0.48  7.9 
##  2  1900   1900 Febr~ 1900.             6.21    0.23      0.48  7.99
##  3  1900   1900 March 1900.             6.26    0.23      0.48  7.99
##  4  1900   1900 April 1900.             6.34    0.24      0.48  7.99
##  5  1900   1900 May   1900.             6.04    0.25      0.48  7.8 
##  6  1900   1900 June  1900.             5.86    0.26      0.48  7.71
##  7  1900   1900 July  1900.             5.86    0.26      0.48  7.8 
##  8  1900   1900 Augu~ 1900.             5.94    0.27      0.48  7.71
##  9  1900   1900 Sept~ 1900.             5.8     0.28      0.48  7.8 
## 10  1900   1900 Octo~ 1900.             6.01    0.290     0.48  7.71
## # ... with 1,436 more rows, and 17 more variables: `Monthly Inflation` <dbl>,
## #   `Rolling 1Y Inflation` <dbl>, `Long Interest Rate GS10` <dbl>, `Real
## #   Prices` <dbl>, `Real Dividends` <dbl>, `Real Total Return Price` <dbl>,
## #   `Real Earnings` <dbl>, `BRolling Average Real Earnings` <dbl>, `Return
## #   Percentage` <dbl>, `1Y FRolling Return Percentage` <dbl>, `5Y Frolling
## #   Return Percentage` <dbl>, `10Y FRolling Return Percentage` <dbl>, `Real TR
## #   Scaled Earnings` <dbl>, `Rolling 10Y CAPE Average` <chr>, `CAPE
## #   (P/E10)` <dbl>, `TR P/E10 or TR CAPE` <dbl>, X25 <dbl>
…
Analyzing Data

# We want to confirm the accuracy of the provided data by doing our own calculation on the CAPE ratio.

dataset3 <- dataset2 %>%  
            filter(Decade >= 1950 | Decade <= 2010) %>%
            mutate(Calculated_CAPE = `Real Prices` / `BRolling Average Real Earnings`) %>%
            group_by(Decade)
            # summarise(Median = median(Calculated_CAPE), `CAPE (P/E10)`,`Year`, `Decade`)
            
dataset3

## # A tibble: 1,446 x 26
## # Groups:   Decade [13]
##     Year Decade Month  Date `S&P Comp. Pric~ Dividend Earnings   CPI
##    <dbl>  <dbl> <chr> <dbl>            <dbl>    <dbl>    <dbl> <dbl>
##  1  1900   1900 Janu~ 1900.             6.1     0.22      0.48  7.9 
##  2  1900   1900 Febr~ 1900.             6.21    0.23      0.48  7.99
##  3  1900   1900 March 1900.             6.26    0.23      0.48  7.99
##  4  1900   1900 April 1900.             6.34    0.24      0.48  7.99
##  5  1900   1900 May   1900.             6.04    0.25      0.48  7.8 
##  6  1900   1900 June  1900.             5.86    0.26      0.48  7.71
##  7  1900   1900 July  1900.             5.86    0.26      0.48  7.8 
##  8  1900   1900 Augu~ 1900.             5.94    0.27      0.48  7.71
##  9  1900   1900 Sept~ 1900.             5.8     0.28      0.48  7.8 
## 10  1900   1900 Octo~ 1900.             6.01    0.290     0.48  7.71
## # ... with 1,436 more rows, and 18 more variables: `Monthly Inflation` <dbl>,
## #   `Rolling 1Y Inflation` <dbl>, `Long Interest Rate GS10` <dbl>, `Real
## #   Prices` <dbl>, `Real Dividends` <dbl>, `Real Total Return Price` <dbl>,
## #   `Real Earnings` <dbl>, `BRolling Average Real Earnings` <dbl>, `Return
## #   Percentage` <dbl>, `1Y FRolling Return Percentage` <dbl>, `5Y Frolling
## #   Return Percentage` <dbl>, `10Y FRolling Return Percentage` <dbl>, `Real TR
## #   Scaled Earnings` <dbl>, `Rolling 10Y CAPE Average` <chr>, `CAPE
## #   (P/E10)` <dbl>, `TR P/E10 or TR CAPE` <dbl>, X25 <dbl>,
## #   Calculated_CAPE <dbl>
…
# Analyzing Median Cape Ratios to see Trends since 1950
dataset3

## # A tibble: 1,446 x 26
## # Groups:   Decade [13]
##     Year Decade Month  Date `S&P Comp. Pric~ Dividend Earnings   CPI
##    <dbl>  <dbl> <chr> <dbl>            <dbl>    <dbl>    <dbl> <dbl>
##  1  1900   1900 Janu~ 1900.             6.1     0.22      0.48  7.9 
##  2  1900   1900 Febr~ 1900.             6.21    0.23      0.48  7.99
##  3  1900   1900 March 1900.             6.26    0.23      0.48  7.99
##  4  1900   1900 April 1900.             6.34    0.24      0.48  7.99
##  5  1900   1900 May   1900.             6.04    0.25      0.48  7.8 
##  6  1900   1900 June  1900.             5.86    0.26      0.48  7.71
##  7  1900   1900 July  1900.             5.86    0.26      0.48  7.8 
##  8  1900   1900 Augu~ 1900.             5.94    0.27      0.48  7.71
##  9  1900   1900 Sept~ 1900.             5.8     0.28      0.48  7.8 
## 10  1900   1900 Octo~ 1900.             6.01    0.290     0.48  7.71
## # ... with 1,436 more rows, and 18 more variables: `Monthly Inflation` <dbl>,
## #   `Rolling 1Y Inflation` <dbl>, `Long Interest Rate GS10` <dbl>, `Real
## #   Prices` <dbl>, `Real Dividends` <dbl>, `Real Total Return Price` <dbl>,
## #   `Real Earnings` <dbl>, `BRolling Average Real Earnings` <dbl>, `Return
## #   Percentage` <dbl>, `1Y FRolling Return Percentage` <dbl>, `5Y Frolling
## #   Return Percentage` <dbl>, `10Y FRolling Return Percentage` <dbl>, `Real TR
## #   Scaled Earnings` <dbl>, `Rolling 10Y CAPE Average` <chr>, `CAPE
## #   (P/E10)` <dbl>, `TR P/E10 or TR CAPE` <dbl>, X25 <dbl>,
## #   Calculated_CAPE <dbl>

dataset4 <- dataset3 %>%
            filter(Decade <= 2010) %>%
            group_by(Decade) %>%
            # summarise(Max = max(`Rolling 10Y CAPE Average`), 
            #           Min = min(`Rolling 10Y CAPE Average`), 
            #           Median = median(`CAPE (P/E10)`)) %>%
            arrange(Year)

dataset4

## # A tibble: 1,440 x 26
## # Groups:   Decade [12]
##     Year Decade Month  Date `S&P Comp. Pric~ Dividend Earnings   CPI
##    <dbl>  <dbl> <chr> <dbl>            <dbl>    <dbl>    <dbl> <dbl>
##  1  1900   1900 Janu~ 1900.             6.1     0.22      0.48  7.9 
##  2  1900   1900 Febr~ 1900.             6.21    0.23      0.48  7.99
##  3  1900   1900 March 1900.             6.26    0.23      0.48  7.99
##  4  1900   1900 April 1900.             6.34    0.24      0.48  7.99
##  5  1900   1900 May   1900.             6.04    0.25      0.48  7.8 
##  6  1900   1900 June  1900.             5.86    0.26      0.48  7.71
##  7  1900   1900 July  1900.             5.86    0.26      0.48  7.8 
##  8  1900   1900 Augu~ 1900.             5.94    0.27      0.48  7.71
##  9  1900   1900 Sept~ 1900.             5.8     0.28      0.48  7.8 
## 10  1900   1900 Octo~ 1900.             6.01    0.290     0.48  7.71
## # ... with 1,430 more rows, and 18 more variables: `Monthly Inflation` <dbl>,
## #   `Rolling 1Y Inflation` <dbl>, `Long Interest Rate GS10` <dbl>, `Real
## #   Prices` <dbl>, `Real Dividends` <dbl>, `Real Total Return Price` <dbl>,
## #   `Real Earnings` <dbl>, `BRolling Average Real Earnings` <dbl>, `Return
## #   Percentage` <dbl>, `1Y FRolling Return Percentage` <dbl>, `5Y Frolling
## #   Return Percentage` <dbl>, `10Y FRolling Return Percentage` <dbl>, `Real TR
## #   Scaled Earnings` <dbl>, `Rolling 10Y CAPE Average` <chr>, `CAPE
## #   (P/E10)` <dbl>, `TR P/E10 or TR CAPE` <dbl>, X25 <dbl>,
## #   Calculated_CAPE <dbl>
…
returns

## # A tibble: 241 x 11
##     Date  Year Month `Buy and Hold P~ `Real S&P Index` `CAPE Portfolio`
##    <dbl> <dbl> <dbl>            <dbl>            <dbl>            <dbl>
##  1 2000.  2000     1         1000000             2205.         1000000 
##  2 2000.  2000     2          969449.            2194.         1015958.
##  3 2000.  2000     3          999426.            2125.         1001391.
##  4 2000.  2000     4         1013057.            2188.          995069.
##  5 2000.  2000     5          983213.            2216.         1010348.
##  6 2000.  2000     6         1008950.            2148.          998184.
##  7 2000.  2000     7         1015150.            2203.          995628.
##  8 2000.  2000     8         1024646.            2214.          991511.
##  9 2000.  2000     9         1008430.            2233.          999685.
## 10 2000.  2000    10          954562.            2195.         1025516.
## # ... with 231 more rows, and 5 more variables: `CAPE Ratio` <dbl>, `CAPE
## #   Median` <dbl>, `CAPE 3Q` <dbl>, `CAPE Mean` <dbl>, `Cape Target` <dbl>
…
