…
library(httr)
library(readxl)
library(vroom)
library(stringr)
library(TTR)
library(zoo)

## 
## Attaching package: 'zoo'

## The following objects are masked from 'package:base':
## 
##     as.Date, as.Date.numeric

## # A tibble: 3,685 x 51
##    CountryID Country IndicatorName  `1970`  `1971` `1972` `1973` `1974`  `1975`
##        <dbl> <chr>   <chr>           <dbl>   <dbl>  <dbl>  <dbl>  <dbl>   <dbl>
##  1         4 Afghan~ Final consum~ 5.56e 9 5.33e 9 5.20e9 5.75e9 6.15e9 6.32e 9
##  2         4 Afghan~ Household co~ 5.07e 9 4.84e 9 4.70e9 5.21e9 5.59e9 5.65e 9
##  3         4 Afghan~ General gove~ 3.72e 8 3.82e 8 4.02e8 4.21e8 4.31e8 5.98e 8
##  4         4 Afghan~ Gross capita~ 9.85e 8 1.05e 9 9.19e8 9.19e8 1.18e9 1.37e 9
##  5         4 Afghan~ Gross fixed ~ 9.85e 8 1.05e 9 9.19e8 9.19e8 1.18e9 1.37e 9
##  6         4 Afghan~ Exports of g~ 1.12e 8 1.45e 8 1.73e8 2.18e8 3.00e8 3.16e 8
##  7         4 Afghan~ Imports of g~ 1.84e 8 2.69e 8 2.60e8 2.78e8 4.07e8 4.59e 8
##  8         4 Afghan~ Gross Domest~ 1.07e10 1.07e10 8.94e9 9.20e9 9.70e9 1.03e10
##  9         4 Afghan~ Agriculture,~ 7.99e 9 7.68e 9 7.36e9 7.90e9 8.18e9 8.45e 9
## 10         4 Afghan~ Mining, Manu~ 1.01e 9 1.05e 9 1.10e9 1.15e9 1.27e9 1.39e 9
## # ... with 3,675 more rows, and 42 more variables: `1976` <dbl>, `1977` <dbl>,
## #   `1978` <dbl>, `1979` <dbl>, `1980` <dbl>, `1981` <dbl>, `1982` <dbl>,
## #   `1983` <dbl>, `1984` <dbl>, `1985` <dbl>, `1986` <dbl>, `1987` <dbl>,
## #   `1988` <dbl>, `1989` <dbl>, `1990` <dbl>, `1991` <dbl>, `1992` <dbl>,
## #   `1993` <dbl>, `1994` <dbl>, `1995` <dbl>, `1996` <dbl>, `1997` <dbl>,
## #   `1998` <dbl>, `1999` <dbl>, `2000` <dbl>, `2001` <dbl>, `2002` <dbl>,
## #   `2003` <dbl>, `2004` <dbl>, `2005` <dbl>, `2006` <dbl>, `2007` <dbl>,
## #   `2008` <dbl>, `2009` <dbl>, `2010` <dbl>, `2011` <dbl>, `2012` <dbl>,
## #   `2013` <dbl>, `2014` <dbl>, `2015` <dbl>, `2016` <dbl>, `2017` <dbl>
…
2017
143
0.96
1.27e+11
7.05e+11
-2.81e+10
8.77e+08
5.69e+09
3.66e+10
1.73e+13
▇▁▁▁▁

## # A tibble: 176,880 x 5
##    CountryID Country     IndicatorName Year  Expenditure
##        <dbl> <chr>       <chr>         <chr>       <dbl>
##  1         4 Afghanistan FCI           1970         5.56
##  2         4 Afghanistan FCI           1971         5.33
##  3         4 Afghanistan FCI           1972         5.20
##  4         4 Afghanistan FCI           1973         5.75
##  5         4 Afghanistan FCI           1974         6.15
##  6         4 Afghanistan FCI           1975         6.32
##  7         4 Afghanistan FCI           1976         6.37
##  8         4 Afghanistan FCI           1977         6.90
##  9         4 Afghanistan FCI           1978         7.09
## 10         4 Afghanistan FCI           1979         6.92
## # ... with 176,870 more rows

## [1] "United States" "India"         "Germany"

## # A tibble: 720 x 4
## # Groups:   Year [48]
##    Country Year  IndicatorName         Expenditure
##    <chr>   <chr> <chr>                       <dbl>
##  1 Germany 1970  Household Expenditure        872.
##  2 Germany 1971  Household Expenditure        919.
##  3 Germany 1972  Household Expenditure        969.
##  4 Germany 1973  Household Expenditure        997.
##  5 Germany 1974  Household Expenditure        995.
##  6 Germany 1975  Household Expenditure       1032.
##  7 Germany 1976  Household Expenditure       1076.
##  8 Germany 1977  Household Expenditure       1122.
##  9 Germany 1978  Household Expenditure       1162.
## 10 Germany 1979  Household Expenditure       1200.
## # ... with 710 more rows
…
## # A tibble: 176,880 x 5
##    CountryID Country     IndicatorName Year  Expenditure
##        <dbl> <chr>       <chr>         <chr>       <dbl>
##  1         4 Afghanistan FCI           1970         5.56
##  2         4 Afghanistan FCI           1971         5.33
##  3         4 Afghanistan FCI           1972         5.20
##  4         4 Afghanistan FCI           1973         5.75
##  5         4 Afghanistan FCI           1974         6.15
##  6         4 Afghanistan FCI           1975         6.32
##  7         4 Afghanistan FCI           1976         6.37
##  8         4 Afghanistan FCI           1977         6.90
##  9         4 Afghanistan FCI           1978         7.09
## 10         4 Afghanistan FCI           1979         6.92
## # ... with 176,870 more rows

## # A tibble: 63,072 x 5
## # Rowwise:  Year, Country
##    Country     Year  IndicatorName           Expenditure CalculatedGDP
##    <chr>       <chr> <chr>                         <dbl>         <int>
##  1 Afghanistan 1970  Household Expenditure         5.07              1
##  2 Afghanistan 1970  Government Expenditure        0.372             1
##  3 Afghanistan 1970  Gross capital formation       0.985             1
##  4 Afghanistan 1970  Exports                       0.112             1
##  5 Afghanistan 1970  Imports                       0.184             1
##  6 Afghanistan 1970  GDP                          10.7               0
##  7 Albania     1970  Household Expenditure         2.14              1
##  8 Albania     1970  Government Expenditure        0.101             1
##  9 Albania     1970  Gross capital formation       0.921             1
## 10 Albania     1970  Exports                       0.449             1
## # ... with 63,062 more rows
…
For the United States, Net Exports and Government Expenditure have been slowly decreasing, while Household Expenditure and Gross Capital Formation have slighty increased. I think these trends make sense given their economy’s switch away from manufacturing to a more service-oriented, which means their net exports have decreased. Further, their economy has been strong (on average) for the past 50 years and their households (again on average) some of the wealthiest in the world, which is why these two factors have continued to increase their contribution towards GDP.

## # A tibble: 720 x 4
## # Groups:   Year [48]
##    Country Year  IndicatorName         Expenditure
##    <chr>   <chr> <chr>                       <dbl>
##  1 Canada  1970  Household Expenditure        266.
##  2 Canada  1971  Household Expenditure        282.
##  3 Canada  1972  Household Expenditure        301.
##  4 Canada  1973  Household Expenditure        321.
##  5 Canada  1974  Household Expenditure        338.
##  6 Canada  1975  Household Expenditure        350.
##  7 Canada  1976  Household Expenditure        368.
##  8 Canada  1977  Household Expenditure        379.
##  9 Canada  1978  Household Expenditure        390.
## 10 Canada  1979  Household Expenditure        399.
## # ... with 710 more rows
…
